﻿{
	"APP_COPYRIGHT_MESSAGE": "Hak Cipta Dilindungi Oleh Undang-undang",
	"APP_NAME": "e-Proc PT. Petrosea Tbk",
	"APP_YEAR": "2017",
	"CAROUSEL": [
		"assets/img/slider/mp-1.jpg",
		"assets/img/slider/mp-2.jpeg",
		"assets/img/slider/mp-3.jpg",
		"assets/img/slider/mp-4.jpg"
	],
	"COMPANY_NAME": "PT. Petrosea Tbk",
	"COMPANY_URL": "https://www.petrosea.com/",
	"DEVELOPER_NAME": "PT ITPreneur Teknologi Indonesia",
	"DEVELOPER_URL": "http://itpi.co.id",
	"SLIDER_BACKGROUND": "assets/img/slider/container-image.jpg",
	"THUMBNAILS": [
		"assets/img/slider/thumbnails/img2.jpg"
	]
}